2020-07-25 15:58:01.919635,2020-07-25 15:58:01.560511,0:00:00.376323
2020-07-25 15:58:04.981012,2020-07-25 15:58:04.635949,0:00:00.362262
2020-07-25 15:58:09.644238,2020-07-25 15:58:09.349674,0:00:00.311763
2020-07-25 15:58:11.793808,2020-07-25 15:58:11.378596,0:00:00.432411
2020-07-25 15:58:28.969112,2020-07-25 15:58:28.595696,0:00:00.390615
2020-07-25 15:58:33.001435,2020-07-25 15:58:32.659760,0:00:00.358874
2020-07-25 15:58:37.983699,2020-07-25 15:58:37.606427,0:00:00.394471
2020-07-25 15:58:40.134111,2020-07-25 15:58:39.746539,0:00:00.404771
2020-07-25 15:58:42.101028,2020-07-25 15:58:41.703726,0:00:00.414501
2020-07-25 16:02:22.518389,2020-07-25 16:02:22.151915,0:00:00.404548
2020-07-25 16:02:24.350032,2020-07-25 16:02:24.002064,0:00:00.386042
2020-07-25 16:02:27.203569,2020-07-25 16:02:26.875111,0:00:00.366532
2020-07-25 16:02:29.437566,2020-07-25 16:02:29.132240,0:00:00.343400
2020-07-25 16:05:49.114102,2020-07-25 16:05:48.660631,0:00:00.511170
2020-07-25 16:05:51.770811,2020-07-25 16:05:51.358282,0:00:00.470228
2020-07-25 16:05:54.918100,2020-07-25 16:05:54.458071,0:00:00.517728
2020-07-25 16:06:01.113374,2020-07-25 16:06:00.681082,0:00:00.489991
2020-07-25 16:08:53.572639,2020-07-25 16:08:53.181366,0:00:00.402512
2020-07-25 16:08:55.941485,2020-07-25 16:08:55.565146,0:00:00.387578
2020-07-25 16:08:58.309821,2020-07-25 16:08:57.854268,0:00:00.466792
2020-07-25 16:09:01.967160,2020-07-25 16:09:01.528384,0:00:00.450015
2020-07-25 16:09:06.517109,2020-07-25 16:09:06.073582,0:00:00.454766
2020-07-25 16:24:08.092702,2020-07-25 16:24:07.772930,0:00:00.334818
2020-07-25 16:24:09.520774,2020-07-25 16:24:09.218510,0:00:00.317310
2020-07-25 16:24:11.623875,2020-07-25 16:24:11.271829,0:00:00.367092
2020-07-25 16:24:13.632207,2020-07-25 16:24:13.324576,0:00:00.322677
2020-07-25 16:55:25.244724,2020-07-25 16:55:24.789349,0:00:00.457833
2020-07-25 16:55:27.834949,2020-07-25 16:55:27.483025,0:00:00.354382
2020-07-25 16:55:28.047445,2020-07-25 16:55:27.679790,0:00:00.370113
2020-07-25 16:55:29.275107,2020-07-25 16:55:28.859456,0:00:00.418109
2020-07-25 16:55:30.273878,2020-07-25 16:55:29.887940,0:00:00.388396
2020-07-25 17:03:57.755536,2020-07-25 17:03:57.337388,0:00:00.427232
2020-07-25 17:03:59.361483,2020-07-25 17:03:58.903842,0:00:00.466725
2020-07-25 17:04:01.221615,2020-07-25 17:04:00.833237,0:00:00.397462
2020-07-25 17:04:03.457631,2020-07-25 17:04:02.996349,0:00:00.470366
2020-07-25 17:05:41.728415,2020-07-25 17:05:41.260489,0:00:00.502655
2020-07-25 17:05:44.215990,2020-07-25 17:05:43.802550,0:00:00.448169
2020-07-25 17:05:46.705584,2020-07-25 17:05:46.350117,0:00:00.390196
2020-07-25 17:05:52.400785,2020-07-25 17:05:52.007691,0:00:00.427823
2020-07-25 17:05:54.210573,2020-07-25 17:05:53.759813,0:00:00.485489
2020-07-25 17:07:52.997745,2020-07-25 17:07:52.592873,0:00:00.427074
2020-07-25 17:07:55.641338,2020-07-25 17:07:55.181912,0:00:00.481628
2020-07-25 17:07:58.089334,2020-07-25 17:07:57.687256,0:00:00.424280
2020-07-25 17:07:59.864211,2020-07-25 17:07:59.476519,0:00:00.409894
